<svg 
 xmlns="http://www.w3.org/2000/svg"
 xmlns:xlink="http://www.w3.org/1999/xlink"
 width="407px" height="570px">
<path fill-rule="evenodd"  stroke="rgb(0, 0, 0)" stroke-width="2px" stroke-linecap="butt" stroke-linejoin="miter" fill="none"
 d="M124.670,7.612 C124.670,7.612 53.533,60.011 6.916,126.740 C6.916,126.740 -6.939,139.190 7.794,153.017 C22.529,166.846 122.034,267.765 122.034,267.765 C122.034,267.765 138.771,280.800 123.791,298.423 C108.810,316.047 8.674,415.798 8.674,415.798 C8.674,415.798 -5.869,424.775 6.037,440.325 C17.943,455.874 74.171,524.534 129.942,566.460 C129.942,566.460 140.421,571.631 148.396,562.956 C156.372,554.281 390.055,317.693 390.055,317.693 C390.055,317.693 404.995,304.089 404.995,286.160 C404.995,268.637 402.773,265.564 389.176,249.370 C375.580,233.176 148.396,4.984 148.396,4.984 C148.396,4.984 135.663,-5.548 124.670,7.612 Z"/>
</svg>